<!DOCTYPE html>
<!--
To change this license header, choose License Headers in Project Properties.
To change this template file, choose Tools | Templates
and open the template in the editor.
-->

<link rel="stylesheet" href="https://maxcdn.bootstrapcdn.com/bootstrap/3.3.6/css/bootstrap.min.css" integrity="sha384-1q8mTJOASx8j1Au+a5WDVnPi2lkFfwwEAa8hDDdjZlpLegxhjVME1fgjWPGmkzs7" crossorigin="anonymous">


<style>
    .list-group-item-heading {
        padding-left: 60px;
        margin: auto;
        color: #fff;
    }

    .list-group-item{

        color: #fff;
    }

    body {


    }

    .jumbotron {
        background: #2c3e50;
        color: #fff;
    }

    .col-sm-10 {
        width: 40.33333333%; 
    }

    .list-group-item {
        position: relative;
        display: block; 
        padding: 10px 15px;
        margin-bottom: -1px;
        background-color: #fff;
        border: 1px solid #ddd;
    }

    .list-group {
        padding-left: 0;

        width: 300px;
        float: left;
    }



    .jumbotron {
        background: #06194C;
        color: #fff;
    }

    .jumbotron {
        padding-top: 30px;
        padding-bottom: 30px;
    }

    .text_box_hlavni{

        width: 300px;
        height: 34px;
        border-radius: 4px;
        padding: 12px;
        margin-left: 100px;
        margin-bottom: 20px;
    }


</style>


<html style="text-align: center">
    <head>
        <meta charset="UTF-8">
        <meta name="viewport" content="width=1024px">
        <title></title>
    </head>
    <body style=" background-repeat: no-repeat;" background="http://orig05.deviantart.net/14af/f/2012/302/e/c/pure_xbox_clan___youtube_non_partnered_background_by_strrikefx-d5jb3iq.jpg">




        <h1 style="position: absolute; margin-top: -20px; margin-left: 900px; color: white;width: 500px; heigh: 500px ">INFORMAČNÍ SYSTÉM</h1>

        <div style=" margin-left: 515px; margin-top: 50px; background-color: black; color: white; width: 310px; height: 42px">
            <ul class="nav nav-tabs" style="border-bottom: 0px solid #ddd;">
                <li ><a  href="vypis.php">Výpis uživatelů</a></li>
                <li role="presentation" class="active"><a href="index.php">Registrace</a></li>
                <li role="presentation"><a href="#">Pomoc</a></li>
            </ul>
        </div>
        <br>




   







        <div class="jumbotron" style="background-color: white; width: 970px; height: 700px; margin-left: 515px; font-size: 12px; margin-top: -20px">


            <h3 style="margin-left: -450px; color: black"><strong>REGISTRACE UŽIVATELE</strong></h3>


            <br>
            <br>
            <br>
            <div class="container" style="color: #2c3e50; margin-left: -230px; text-align: right" >                       <!--  hlavní stránka -->



                <form class="form-horizontal" role="form" action="pridat_uzivatele.php" method="post">  

                    <label  for="email">Uživatelské jméno:</label>
                    <input class="text_box_hlavni" name="uz_jmeno" placeholder="Zadejte uživatelské jméno">
                    <br>
                    <label  for="email">Heslo:</label>
                    <input class="text_box_hlavni" name="heslo" placeholder="Zadejte uživatelské jméno">
                    <br>
                    <label  for="email">Znovu heslo:</label>
                    <input class="text_box_hlavni" name="zn_heslo" placeholder="Zadejte uživatelské jméno">
                    <br>
                    <label for="email">Email:</label>
                    <input  class="text_box_hlavni" name="email" placeholder="Zadejte uživatelské jméno" style="margin-right: 3px">
                    <br>
                    
                    <button type="submit" class="btn btn-default" style="align-left: 50px">REGISTROVAT</button>
                                   

                </form>

            </div>
        </div>



    </body>
</html>



</body>
</html>

