












<!DOCTYPE html>
<!--
To change this license header, choose License Headers in Project Properties.
To change this template file, choose Tools | Templates
and open the template in the editor.
-->

<link rel="stylesheet" href="https://maxcdn.bootstrapcdn.com/bootstrap/3.3.6/css/bootstrap.min.css" integrity="sha384-1q8mTJOASx8j1Au+a5WDVnPi2lkFfwwEAa8hDDdjZlpLegxhjVME1fgjWPGmkzs7" crossorigin="anonymous">


<style>
    .list-group-item-heading {
        padding-left: 60px;
        margin: auto;
        color: #fff;
    }

    .list-group-item{

        color: #fff;
    }

    body {


    }

    .jumbotron {
        background: #2c3e50;
        color: #fff;
    }

    .col-sm-10 {
        width: 40.33333333%; 
    }

    .list-group-item {
        position: relative;
        display: block; 
        padding: 10px 15px;
        margin-bottom: -1px;
        background-color: #fff;
        border: 1px solid #ddd;
    }

    .list-group {
        padding-left: 0;

        width: 300px;
        float: left;
    }



    .jumbotron {
        background: #06194C;
        color: #fff;
    }

    .jumbotron {
        padding-top: 30px;
        padding-bottom: 30px;
    }

    .text_box_hlavni{

        width: 300px;
        height: 34px;
        border-radius: 4px;
        padding: 12px;
        margin-left: 100px;
        margin-bottom: 20px;
    }


</style>


<html style="text-align: center">
    <head>
        <meta charset="UTF-8">
        <meta name="viewport" content="width=1024px">
        <title></title>
    </head>
    <body style=" background-repeat: no-repeat;" background="http://orig05.deviantart.net/14af/f/2012/302/e/c/pure_xbox_clan___youtube_non_partnered_background_by_strrikefx-d5jb3iq.jpg">




        <h1 style="position:absolute; margin-top: -20px; margin-left: 900px; color: white;width: 500px; heigh: 500px ">INFORMAČNÍ SYSTÉM</h1>

        <div style=" margin-left: 515px; margin-top: 50px; background-color: black; color: white; width: 310px; height: 42px">
            <ul class="nav nav-tabs" style="border-bottom: 0px solid #ddd;">
                <li class="active" ><a  href="vypis.php">Výpis uživatelů</a></li>
                <li role="presentation"><a href="index.php">Registrace</a></li>
                <li role="presentation"><a href="#">Pomoc</a></li>
            </ul>
        </div>
        <br>













        <div class="jumbotron" style="background-color: white; width: 970px; height: 1000px; margin-left: 515px; font-size: 12px; margin-top: -20px">


            <h3 style="margin-left: -700px; color: black"><strong>VÝPIS UŽIVATELŮ</strong></h3>


            <br>
            <br>
            <br>
            <div class="container" style="color: #2c3e50; margin-left: 30px; text-align: left" >                       <!--  hlavní stránka -->





                <?php
                Vypsani_uzivatelu::vypsat();

                /**
                 * Třída pro výpis všech uživatelů.
                 */
                
                class Vypsani_uzivatelu {

                    /**
                     * Funkce pro výpis uživatelů z databáze.
                     * @throws Pokud se nelze připojit do databáze.
                     * @throws Pokud nelze vypsat uživatele.
                     */
                    static function vypsat() {


                        $pripojeni = new mysqli("localhost", "root", "", "mydb");


                        if ($pripojeni->connect_error) {

                            echo "Nelze se připojit k databázi." . $pripojeni->connect_error;
                        } else {


                            $dotaz = "SELECT * FROM uzivatele";
                            $vysledky = $pripojeni->query($dotaz);

                            if ($pripojeni->multi_query($dotaz) === TRUE) {

                                while ($vypsat = $vysledky->fetch_assoc()) {
                                    echo "<form class='form-horizontal' role='form' method='post'>";
                                    echo "<br>";
                                    echo "<label name='id'> ID: " . $vypsat['IdUzivatele'] . "</label>";
                                    echo "  <input type='hidden' name='id' value='" . $vypsat['IdUzivatele'] . "' ></input>";
                                    echo "<br>" . "Uživatelské jméno: " . $vypsat['Jmeno'] . "<br>" . "Email: " . $vypsat['Email'];
                                    echo "  <input type='hidden' name='jm' value='" . $vypsat['Jmeno'] . "' ></input>";
                                    echo "  <input type='hidden' name='hs' value='" . $vypsat['Heslo'] . "' ></input>";
                                    echo "  <input type='hidden' name='em' value='" . $vypsat['Email'] . "' ></input>";
                                     echo "  <input type='hidden' name='id' value='" . $vypsat['IdUzivatele'] . "' ></input>";
                                    echo "<center><button type='submit' class='btn btn-default' style='position:absolute; margin-left: -200px; margin-top: -55px' formaction='odstranit.php'>Odstranit</button></center>";
                                    echo "<br>";
                                    echo "<center><button type='submit' class='btn btn-default' style='position:absolute; width: 84px; margin-left: -200px; margin-top: -30px' formaction='upravit.php'>Upravit</button></center>";
                                    echo "<br>";
                                    echo "<hr style='width:900px; margin-left: -30px'>";
                                    echo "<br>";
                                    echo "</form>";
                                }
                            } else {
                                echo "Nebylo možné vypsat uživatele.";
                            }
                        }
                    }

                }

                // konec class MySQL
                ?>



            </div>
        </div>



    </body>
</html>



</body>
</html>

